[
    {
        "language":1,
        "gender":1,
        "birthDate":"1999-09-09T04:00:00.000Z",
        "firstVaccinationDate":"2021-03-17T04:00:00.000Z",
        "vaccineManufacturer":"PB COVID-19",
        "firstName":"test",
        "lastName":"test",
        "motherFirstName":"test",
        "motherMaidenName":"test",
        "fatherFirstName":"test",
        "fatherLastName":"test",
        "healthInsuranceNumber":"ABCD 1324 1234"
    }
]